{
    "credentials": {
      "username": "sa",
      "password": "stx",
      "vmi" : [
        {
          "app": "MEGA_TYO",
          "db": "VMI_TYO"
        },
        {
          "app": "MEGA_SME",
          "db": "VMI_SME"
        },
        {
          "app": "MEGA_EXIM",
          "db": "VMI_EXIM"
        }
      ]
    }
}